\contentsline {chapter}{\numberline {1}Class Index}{1}{chapter.1}
\contentsline {section}{\numberline {1.1}Class List}{1}{section.1.1}
\contentsline {chapter}{\numberline {2}Class Documentation}{3}{chapter.2}
\contentsline {section}{\numberline {2.1}Buffer\discretionary {-}{}{}Info Struct Reference}{3}{section.2.1}
\contentsline {section}{\numberline {2.2}Cube Class Reference}{3}{section.2.2}
\contentsline {section}{\numberline {2.3}Free\discretionary {-}{}{}Image2\discretionary {-}{}{}D Class Reference}{4}{section.2.3}
\contentsline {section}{\numberline {2.4}G\discretionary {-}{}{}Buffer Struct Reference}{4}{section.2.4}
\contentsline {section}{\numberline {2.5}Matrix$<$ T, \discretionary {-}{}{}\_\discretionary {-}{}{}\discretionary {-}{}{}R, \discretionary {-}{}{}\_\discretionary {-}{}{}\discretionary {-}{}{}C $>$ Class Template Reference}{5}{section.2.5}
\contentsline {section}{\numberline {2.6}Matrix\discretionary {-}{}{}Stack$<$ depth $>$ Class Template Reference}{6}{section.2.6}
\contentsline {section}{\numberline {2.7}Obj\discretionary {-}{}{}File Struct Reference}{6}{section.2.7}
\contentsline {section}{\numberline {2.8}obs\discretionary {-}{}{}\_\discretionary {-}{}{}mesh\discretionary {-}{}{}\_\discretionary {-}{}{}collider Struct Reference}{6}{section.2.8}
\contentsline {section}{\numberline {2.9}obs\discretionary {-}{}{}\_\discretionary {-}{}{}ray3 Struct Reference}{7}{section.2.9}
\contentsline {section}{\numberline {2.10}obs\discretionary {-}{}{}\_\discretionary {-}{}{}ray\discretionary {-}{}{}\_\discretionary {-}{}{}hit Struct Reference}{7}{section.2.10}
\contentsline {section}{\numberline {2.11}obs\discretionary {-}{}{}\_\discretionary {-}{}{}sphere\discretionary {-}{}{}\_\discretionary {-}{}{}collider Struct Reference}{7}{section.2.11}
\contentsline {section}{\numberline {2.12}obs\discretionary {-}{}{}\_\discretionary {-}{}{}tri Struct Reference}{7}{section.2.12}
\contentsline {section}{\numberline {2.13}obs\discretionary {-}{}{}\_\discretionary {-}{}{}vec3 Struct Reference}{8}{section.2.13}
\contentsline {section}{\numberline {2.14}obs\discretionary {-}{}{}\_\discretionary {-}{}{}vec4 Struct Reference}{8}{section.2.14}
\contentsline {section}{\numberline {2.15}Quaternion Class Reference}{8}{section.2.15}
\contentsline {section}{\numberline {2.16}Screen Struct Reference}{9}{section.2.16}
\contentsline {section}{\numberline {2.17}Shader\discretionary {-}{}{}Info Struct Reference}{9}{section.2.17}
\contentsline {section}{\numberline {2.18}Texture2\discretionary {-}{}{}D Class Reference}{9}{section.2.18}
\contentsline {section}{\numberline {2.19}Vector3$<$ T $>$ Class Template Reference}{10}{section.2.19}
\contentsline {section}{\numberline {2.20}Vertex Struct Reference}{10}{section.2.20}
\contentsline {part}{Index}{10}{section*.22}
