\relax 
\providecommand\hyper@newdestlabel[2]{}
\providecommand\HyperFirstAtBeginDocument{\AtBeginDocument}
\HyperFirstAtBeginDocument{\ifx\hyper@anchor\@undefined
\global\let\oldcontentsline\contentsline
\gdef\contentsline#1#2#3#4{\oldcontentsline{#1}{#2}{#3}}
\global\let\oldnewlabel\newlabel
\gdef\newlabel#1#2{\newlabelxx{#1}#2}
\gdef\newlabelxx#1#2#3#4#5#6{\oldnewlabel{#1}{{#2}{#3}}}
\AtEndDocument{\ifx\hyper@anchor\@undefined
\let\contentsline\oldcontentsline
\let\newlabel\oldnewlabel
\fi}
\fi}
\global\let\hyper@last\relax 
\gdef\HyperFirstAtBeginDocument#1{#1}
\providecommand\HyField@AuxAddToFields[1]{}
\providecommand\HyField@AuxAddToCoFields[2]{}
\@writefile{toc}{\contentsline {chapter}{\numberline {1}Class Index}{1}{chapter.1}}
\@writefile{lof}{\addvspace {10\p@ }}
\@writefile{lot}{\addvspace {10\p@ }}
\@writefile{toc}{\contentsline {section}{\numberline {1.1}Class List}{1}{section.1.1}}
\@writefile{toc}{\contentsline {chapter}{\numberline {2}Class Documentation}{3}{chapter.2}}
\@writefile{lof}{\addvspace {10\p@ }}
\@writefile{lot}{\addvspace {10\p@ }}
\@writefile{toc}{\contentsline {section}{\numberline {2.1}Buffer\discretionary {-}{}{}Info Struct Reference}{3}{section.2.1}}
\newlabel{structBufferInfo}{{2.1}{3}{Buffer\-Info Struct Reference}{section.2.1}{}}
\newlabel{structBufferInfo_a91bedb2bf53f8e664c9859261ee9aa60}{{2.1}{3}{Public Attributes}{section*.2}{}}
\newlabel{structBufferInfo_a3513f08c3697aca44275bd41a33b4f7a}{{2.1}{3}{Public Attributes}{section*.2}{}}
\newlabel{structBufferInfo_a4fd1e52fa4d8e7fb67747120073f04f3}{{2.1}{3}{Public Attributes}{section*.2}{}}
\newlabel{structBufferInfo_a68fa774b82955878d05981c58ca6a7b2}{{2.1}{3}{Public Attributes}{section*.2}{}}
\@writefile{toc}{\contentsline {section}{\numberline {2.2}Cube Class Reference}{3}{section.2.2}}
\newlabel{classCube}{{2.2}{3}{Cube Class Reference}{section.2.2}{}}
\newlabel{classCube_a712ab7886ea88c4816c22e4f89482257}{{2.2}{3}{Public Member Functions}{section*.3}{}}
\newlabel{classCube_a56da71dbee6166eab114bcaf644c6086}{{2.2}{3}{Public Member Functions}{section*.3}{}}
\newlabel{classCube_ad6e17d38f2049a5e9b691ffba286c9c3}{{2.2}{3}{Public Member Functions}{section*.3}{}}
\newlabel{classCube_a6a215563927f3ae1a4ae399100e899b6}{{2.2}{3}{Public Member Functions}{section*.3}{}}
\newlabel{classCube_af526b724c0ecd30e2de0da66d8f2abd5}{{2.2}{3}{Public Member Functions}{section*.3}{}}
\newlabel{classCube_a848ad0cf2dc19d47e99fa0839f69de3c}{{2.2}{3}{Public Member Functions}{section*.3}{}}
\newlabel{classCube_a15d813bfdf0f8c7d3bfaa024d99ef1a3}{{2.2}{3}{Public Member Functions}{section*.3}{}}
\newlabel{classCube_a2141ee9ae5a29aa9b6bfe3af5aba9626}{{2.2}{3}{Public Member Functions}{section*.3}{}}
\newlabel{classCube_a5cc799504cb263d9f0e7d525326f4b33}{{2.2}{3}{Public Member Functions}{section*.3}{}}
\newlabel{classCube_ae342c6b6640f96d35d3b08b767da425c}{{2.2}{3}{Public Member Functions}{section*.3}{}}
\newlabel{classCube_a984c94324e0300a25d356b460227db7b}{{2.2}{3}{Public Member Functions}{section*.3}{}}
\newlabel{classCube_a471b46faf86479e50bce2276ea41217b}{{2.2}{3}{Public Member Functions}{section*.3}{}}
\newlabel{classCube_ae345cd3e87649c0951987fddd99f901f}{{2.2}{3}{Public Member Functions}{section*.3}{}}
\newlabel{classCube_ae756837524344c79e318407b261193f2}{{2.2}{3}{Public Member Functions}{section*.3}{}}
\newlabel{classCube_af1563835429f181b96aa78044cb41a0d}{{2.2}{3}{Public Member Functions}{section*.3}{}}
\newlabel{classCube_af7b9fdf742ba59c639aa0427e7ea5156}{{2.2}{3}{Public Member Functions}{section*.3}{}}
\newlabel{classCube_a3dd1742b3e9b450053db872a519608de}{{2.2}{3}{Public Member Functions}{section*.3}{}}
\newlabel{classCube_aa618b9a3d6db62c09a21b66c505399cb}{{2.2}{3}{Public Member Functions}{section*.3}{}}
\newlabel{classCube_a2eca2ea48cff1fcc6265198b9a55c11b}{{2.2}{3}{Public Member Functions}{section*.3}{}}
\newlabel{classCube_a602fe35ae37b6343a847ec6eedcadec4}{{2.2}{4}{Public Member Functions}{section*.3}{}}
\newlabel{classCube_a30c03d1212b0ba5215e946651bdc2657}{{2.2}{4}{Public Member Functions}{section*.3}{}}
\newlabel{classCube_a273661eb858ecea4f76c39705df76e83}{{2.2}{4}{Public Member Functions}{section*.3}{}}
\newlabel{classCube_ab7c1411e59db35f095fa247908b3f6ed}{{2.2}{4}{Public Member Functions}{section*.3}{}}
\newlabel{classCube_a288f651767181e01e8dee65b9c2e9636}{{2.2}{4}{Public Member Functions}{section*.3}{}}
\newlabel{classCube_a471b46faf86479e50bce2276ea41217b}{{2.2}{4}{Public Member Functions}{section*.3}{}}
\newlabel{classCube_ae345cd3e87649c0951987fddd99f901f}{{2.2}{4}{Public Member Functions}{section*.3}{}}
\@writefile{toc}{\contentsline {section}{\numberline {2.3}Free\discretionary {-}{}{}Image2\discretionary {-}{}{}D Class Reference}{4}{section.2.3}}
\newlabel{classFreeImage2D}{{2.3}{4}{Free\-Image2\-D Class Reference}{section.2.3}{}}
\newlabel{classFreeImage2D_a3a0be55d349a0ae150b743ed1dfffdd5}{{2.3}{4}{Public Member Functions}{section*.4}{}}
\newlabel{classFreeImage2D_a3487c61ece6c2ecd2cd98dadc934ffb3}{{2.3}{4}{Public Member Functions}{section*.4}{}}
\newlabel{classFreeImage2D_a27b0dce20b0d296896522e449a28899d}{{2.3}{4}{Public Member Functions}{section*.4}{}}
\newlabel{classFreeImage2D_a731b99053accf0140ad651fbe3b44362}{{2.3}{4}{Public Member Functions}{section*.4}{}}
\newlabel{classFreeImage2D_a5ae2a39e16752b472ef6fc4edbbbdbfe}{{2.3}{4}{Public Member Functions}{section*.4}{}}
\newlabel{classFreeImage2D_a843473461214650efa89b2cf09086c42}{{2.3}{4}{Public Member Functions}{section*.4}{}}
\@writefile{toc}{\contentsline {section}{\numberline {2.4}G\discretionary {-}{}{}Buffer Struct Reference}{4}{section.2.4}}
\newlabel{structGBuffer}{{2.4}{4}{G\-Buffer Struct Reference}{section.2.4}{}}
\newlabel{structGBuffer_a503b4fb6031d509f2a2f62c5f4cae917}{{2.4}{4}{Public Attributes}{section*.5}{}}
\newlabel{structGBuffer_aba19e570564ecb563d17c06cb91cb727}{{2.4}{4}{Public Attributes}{section*.5}{}}
\newlabel{structGBuffer_ae3e81231e8b1c4009c185b6e10e27a00}{{2.4}{4}{Public Attributes}{section*.5}{}}
\newlabel{structGBuffer_a2614dc7c37735282d8b86133c816bfd8}{{2.4}{4}{Public Attributes}{section*.5}{}}
\newlabel{structGBuffer_abb8e5f53d30abf1038d9570b0b8424d4}{{2.4}{4}{Public Attributes}{section*.5}{}}
\newlabel{structGBuffer_a67a5e344a37d458aad3280a079f51a11}{{2.4}{4}{Public Attributes}{section*.5}{}}
\newlabel{structGBuffer_ab7f0427d1b1287883d6fdeb63efef745}{{2.4}{4}{Public Attributes}{section*.5}{}}
\newlabel{structGBuffer_abae9d25e3f4774cb12019d3685042de7}{{2.4}{4}{Public Attributes}{section*.5}{}}
\@writefile{toc}{\contentsline {section}{\numberline {2.5}Matrix$<$ T, \discretionary {-}{}{}\_\discretionary {-}{}{}\discretionary {-}{}{}R, \discretionary {-}{}{}\_\discretionary {-}{}{}\discretionary {-}{}{}C $>$ Class Template Reference}{5}{section.2.5}}
\newlabel{classMatrix}{{2.5}{5}{Matrix$<$ T, \-\_\-\-R, \-\_\-\-C $>$ Class Template Reference}{section.2.5}{}}
\newlabel{classMatrix_a2aaba53b25b82abe355920e770d2f463}{{2.5}{5}{Public Member Functions}{section*.6}{}}
\newlabel{classMatrix_a55f1cb13def43874c666d3b6ca9cbc9f}{{2.5}{5}{Public Member Functions}{section*.6}{}}
\newlabel{classMatrix_a8d3854fe56a3fa4976b9b0fee8d9a3f1}{{2.5}{5}{Public Member Functions}{section*.6}{}}
\newlabel{classMatrix_a130b847aa24d008aa931440f21348af6}{{2.5}{5}{Public Member Functions}{section*.6}{}}
\newlabel{classMatrix_a7c61c484af5623e2b0b549c75cdb8f51}{{2.5}{5}{Public Member Functions}{section*.6}{}}
\newlabel{classMatrix_ac05549448ecb0969e3aa39f75135cb4c}{{2.5}{5}{Public Member Functions}{section*.6}{}}
\newlabel{classMatrix_a7ccf2fc10e0d3d42be9c498c8aed3264}{{2.5}{5}{Public Member Functions}{section*.6}{}}
\newlabel{classMatrix_aa7d5144c0a9628f17b2d09d1b5d55ea5}{{2.5}{5}{Public Member Functions}{section*.6}{}}
\newlabel{classMatrix_a734f39e6ea83b53f13dcba8a3c9e974d}{{2.5}{5}{Public Member Functions}{section*.6}{}}
\newlabel{classMatrix_a956cacbbbdc3aebfe8085bbd3b4dc059}{{2.5}{5}{Public Member Functions}{section*.6}{}}
\newlabel{classMatrix_ae9d37d6eedecd22b609b5d71b9cac2a1}{{2.5}{5}{Public Member Functions}{section*.6}{}}
\newlabel{classMatrix_a0de2c7e238725fed06d8717e6ce7c773}{{2.5}{5}{Public Member Functions}{section*.6}{}}
\newlabel{classMatrix_ae4bf44d97e368ed56d097ee62984f858}{{2.5}{5}{Public Member Functions}{section*.6}{}}
\newlabel{classMatrix_a9bb5bc1106d3f1bd42373a3c0eebbfc3}{{2.5}{5}{Public Member Functions}{section*.6}{}}
\newlabel{classMatrix_a1e550753cbe2441cc8e3f9eac94826ba}{{2.5}{5}{Public Member Functions}{section*.6}{}}
\newlabel{classMatrix_a6b12dc39232c9907faca45141feba05b}{{2.5}{5}{Public Member Functions}{section*.6}{}}
\newlabel{classMatrix_a23eaa102f1c2b859b6e3ebbd44705ba9}{{2.5}{5}{Public Member Functions}{section*.6}{}}
\newlabel{classMatrix_a2ce942995d3003a4ec589df425800de0}{{2.5}{5}{Public Member Functions}{section*.6}{}}
\newlabel{classMatrix_acea592e0da68b829038c99c68f0a6830}{{2.5}{5}{Public Member Functions}{section*.6}{}}
\newlabel{classMatrix_a25085825d70ee44bb672230ae114804b}{{2.5}{5}{Public Member Functions}{section*.6}{}}
\newlabel{classMatrix_a2228e59b55475e8696bb3c92c22fafa3}{{2.5}{5}{Public Member Functions}{section*.6}{}}
\newlabel{classMatrix_abcaff9d994aa0ac548b59014b10840e7}{{2.5}{5}{Public Member Functions}{section*.6}{}}
\newlabel{classMatrix_a3b903048435fd4df6625fe65b64d362b}{{2.5}{5}{Public Member Functions}{section*.6}{}}
\newlabel{classMatrix_aa43b6c19c2ee4af6ca42a336042ea2b9}{{2.5}{5}{Public Member Functions}{section*.6}{}}
\newlabel{classMatrix_ad691c1424b5b27115128bd6433cd0170}{{2.5}{5}{Public Member Functions}{section*.6}{}}
\newlabel{classMatrix_a91aeb393484927b3072abec30f0fc985}{{2.5}{5}{Public Member Functions}{section*.6}{}}
\newlabel{classMatrix_af0087a0ff8914804ac4311023003bd5a}{{2.5}{5}{Public Member Functions}{section*.6}{}}
\newlabel{classMatrix_ac854d82a8bafd27e0efc4bfc0d4d7c6d}{{2.5}{5}{Public Member Functions}{section*.6}{}}
\newlabel{classMatrix_af7cf424ebd0ff021bdc6de4862308133}{{2.5}{5}{Public Member Functions}{section*.6}{}}
\newlabel{classMatrix_a7d0556ccca5e75c00e5397dc3bfe1f1e}{{2.5}{5}{Public Member Functions}{section*.6}{}}
\newlabel{classMatrix_af9d662432f646a977cee70cc88604616}{{2.5}{5}{Public Member Functions}{section*.6}{}}
\newlabel{classMatrix_a62731cc936bfedac7ae1d7910161027e}{{2.5}{5}{Public Member Functions}{section*.6}{}}
\newlabel{classMatrix_a41b1f1033ea389cdd044e58c1db4040a}{{2.5}{5}{Public Member Functions}{section*.6}{}}
\newlabel{classMatrix_a8d3854fe56a3fa4976b9b0fee8d9a3f1}{{2.5}{5}{Public Member Functions}{section*.6}{}}
\newlabel{classMatrix_aa6f9097ff78a11c318e82ec04f7f2461}{{2.5}{5}{Public Member Functions}{section*.6}{}}
\newlabel{classMatrix_a322ac8c9200092b0810c1301185a493e}{{2.5}{5}{Public Member Functions}{section*.6}{}}
\newlabel{classMatrix_af17fd254c0495a0584f44e67991d1f13}{{2.5}{5}{Public Member Functions}{section*.6}{}}
\newlabel{classMatrix_a7ccf2fc10e0d3d42be9c498c8aed3264}{{2.5}{5}{Public Member Functions}{section*.6}{}}
\newlabel{classMatrix_aa7d5144c0a9628f17b2d09d1b5d55ea5}{{2.5}{5}{Public Member Functions}{section*.6}{}}
\newlabel{classMatrix_af1851dce50331ae56d4b8e7483a0a967}{{2.5}{5}{Public Member Functions}{section*.6}{}}
\newlabel{classMatrix_a6b437e1ae15f9ff8c8ec2f21e8359667}{{2.5}{5}{Public Member Functions}{section*.6}{}}
\newlabel{classMatrix_a48ff1ed7a074b2c3622092b2fe46bf7c}{{2.5}{5}{Public Member Functions}{section*.6}{}}
\newlabel{classMatrix_a41b1f1033ea389cdd044e58c1db4040a}{{2.5}{5}{Public Member Functions}{section*.6}{}}
\newlabel{classMatrix_a859174329f8b150b13df59848762b0e7}{{2.5}{6}{Friends}{section*.7}{}}
\newlabel{classMatrix_abce3388948d71586a4c8cda568ff16e9}{{2.5}{6}{Friends}{section*.7}{}}
\newlabel{classMatrix_ab09459dd574e73a609eb820b44326f3e}{{2.5}{6}{Friends}{section*.7}{}}
\newlabel{classMatrix_abef77222fabd69d26205ef3697886660}{{2.5}{6}{Friends}{section*.7}{}}
\@writefile{toc}{\contentsline {section}{\numberline {2.6}Matrix\discretionary {-}{}{}Stack$<$ depth $>$ Class Template Reference}{6}{section.2.6}}
\newlabel{classMatrixStack}{{2.6}{6}{Matrix\-Stack$<$ depth $>$ Class Template Reference}{section.2.6}{}}
\newlabel{classMatrixStack_a9c266a886be54eb2d7372ebad37effa6}{{2.6}{6}{Public Member Functions}{section*.8}{}}
\newlabel{classMatrixStack_a3e04df363681ee598952afdd1a12670e}{{2.6}{6}{Public Member Functions}{section*.8}{}}
\newlabel{classMatrixStack_af828093dbd6d5883a089b59631dcddf3}{{2.6}{6}{Public Member Functions}{section*.8}{}}
\newlabel{classMatrixStack_a77ee3de3001f2aafe6577a7bcf43ef6e}{{2.6}{6}{Public Member Functions}{section*.8}{}}
\@writefile{toc}{\contentsline {section}{\numberline {2.7}Obj\discretionary {-}{}{}File Struct Reference}{6}{section.2.7}}
\newlabel{structObjFile}{{2.7}{6}{Obj\-File Struct Reference}{section.2.7}{}}
\newlabel{structObjFile_a3d04edcb1b236bd2ae659db85e7470fd}{{2.7}{6}{Public Attributes}{section*.9}{}}
\newlabel{structObjFile_ae504814359b6ec7cd3bf79efb6b121a0}{{2.7}{6}{Public Attributes}{section*.9}{}}
\newlabel{structObjFile_a13141d334513b663caade7bbc09d0324}{{2.7}{6}{Public Attributes}{section*.9}{}}
\newlabel{structObjFile_a37cdbcf7183a8ba935307da0320c4fba}{{2.7}{6}{Public Attributes}{section*.9}{}}
\@writefile{toc}{\contentsline {section}{\numberline {2.8}obs\discretionary {-}{}{}\_\discretionary {-}{}{}mesh\discretionary {-}{}{}\_\discretionary {-}{}{}collider Struct Reference}{6}{section.2.8}}
\newlabel{structobs__mesh__collider}{{2.8}{6}{obs\-\_\-mesh\-\_\-collider Struct Reference}{section.2.8}{}}
\newlabel{structobs__mesh__collider_a2eb2f61e7c6e075033f21e5eb035a4c6}{{2.8}{6}{Public Attributes}{section*.10}{}}
\newlabel{structobs__mesh__collider_ac741a05e18f3ffbeec05c9c07047b2c3}{{2.8}{6}{Public Attributes}{section*.10}{}}
\newlabel{structobs__mesh__collider_a3c8ec05e075a903507cff221aebb21b8}{{2.8}{6}{Public Attributes}{section*.10}{}}
\@writefile{toc}{\contentsline {section}{\numberline {2.9}obs\discretionary {-}{}{}\_\discretionary {-}{}{}ray3 Struct Reference}{7}{section.2.9}}
\newlabel{structobs__ray3}{{2.9}{7}{obs\-\_\-ray3 Struct Reference}{section.2.9}{}}
\newlabel{structobs__ray3_a82e8aa98723f6376bb4f939c96215fc9}{{2.9}{7}{Public Attributes}{section*.11}{}}
\newlabel{structobs__ray3_a98a49792a6de93c0605b98d1acc508a1}{{2.9}{7}{Public Attributes}{section*.11}{}}
\@writefile{toc}{\contentsline {section}{\numberline {2.10}obs\discretionary {-}{}{}\_\discretionary {-}{}{}ray\discretionary {-}{}{}\_\discretionary {-}{}{}hit Struct Reference}{7}{section.2.10}}
\newlabel{structobs__ray__hit}{{2.10}{7}{obs\-\_\-ray\-\_\-hit Struct Reference}{section.2.10}{}}
\newlabel{structobs__ray__hit_a20e27daca9174a941dfce9cc21761da7}{{2.10}{7}{Public Attributes}{section*.12}{}}
\newlabel{structobs__ray__hit_ae27fddd6ff26ab22b6bee8f30de2cfd0}{{2.10}{7}{Public Attributes}{section*.12}{}}
\@writefile{toc}{\contentsline {section}{\numberline {2.11}obs\discretionary {-}{}{}\_\discretionary {-}{}{}sphere\discretionary {-}{}{}\_\discretionary {-}{}{}collider Struct Reference}{7}{section.2.11}}
\newlabel{structobs__sphere__collider}{{2.11}{7}{obs\-\_\-sphere\-\_\-collider Struct Reference}{section.2.11}{}}
\newlabel{structobs__sphere__collider_ac91faa10d401e211d8168b508e8cda3b}{{2.11}{7}{Public Attributes}{section*.13}{}}
\newlabel{structobs__sphere__collider_ad7a00526432901f7bc3d3f22b962061d}{{2.11}{7}{Public Attributes}{section*.13}{}}
\@writefile{toc}{\contentsline {section}{\numberline {2.12}obs\discretionary {-}{}{}\_\discretionary {-}{}{}tri Struct Reference}{7}{section.2.12}}
\newlabel{structobs__tri}{{2.12}{7}{obs\-\_\-tri Struct Reference}{section.2.12}{}}
\newlabel{structobs__tri_aab0d17539b19affaa34df74b46e3a96b}{{2.12}{7}{Public Attributes}{section*.14}{}}
\newlabel{structobs__tri_a579f5deaa8e4bac2b7ce54170c62082c}{{2.12}{7}{Public Attributes}{section*.14}{}}
\newlabel{structobs__tri_a979e250fb174019db67aaedf6504904b}{{2.12}{7}{Public Attributes}{section*.14}{}}
\@writefile{toc}{\contentsline {section}{\numberline {2.13}obs\discretionary {-}{}{}\_\discretionary {-}{}{}vec3 Struct Reference}{8}{section.2.13}}
\newlabel{structobs__vec3}{{2.13}{8}{obs\-\_\-vec3 Struct Reference}{section.2.13}{}}
\newlabel{structobs__vec3_a103727c9427f2e1bc290f3d4decfd1a9}{{2.13}{8}{Public Attributes}{section*.15}{}}
\newlabel{structobs__vec3_a388b63b713d0e96136dd346bb9fe29c7}{{2.13}{8}{Public Attributes}{section*.15}{}}
\newlabel{structobs__vec3_a1cd3a982e6ee5fae1b697685514c5484}{{2.13}{8}{Public Attributes}{section*.15}{}}
\@writefile{toc}{\contentsline {section}{\numberline {2.14}obs\discretionary {-}{}{}\_\discretionary {-}{}{}vec4 Struct Reference}{8}{section.2.14}}
\newlabel{structobs__vec4}{{2.14}{8}{obs\-\_\-vec4 Struct Reference}{section.2.14}{}}
\newlabel{structobs__vec4_a40aaa4269197c93ea891f6540642d51d}{{2.14}{8}{Public Attributes}{section*.16}{}}
\newlabel{structobs__vec4_aa0185607cbda27171e6b9ba7393c527c}{{2.14}{8}{Public Attributes}{section*.16}{}}
\newlabel{structobs__vec4_a967fe6f0534b288a5a6410cdc2ecbaed}{{2.14}{8}{Public Attributes}{section*.16}{}}
\newlabel{structobs__vec4_a64d5b45d5f62f25de9fbce1879a7ac8a}{{2.14}{8}{Public Attributes}{section*.16}{}}
\@writefile{toc}{\contentsline {section}{\numberline {2.15}Quaternion Class Reference}{8}{section.2.15}}
\newlabel{classQuaternion}{{2.15}{8}{Quaternion Class Reference}{section.2.15}{}}
\newlabel{classQuaternion_a7c9a23ebddb8f9771678ca8f96bf6dc1}{{2.15}{8}{Public Member Functions}{section*.17}{}}
\newlabel{classQuaternion_a2d17fc0c8fd90da997c2306f7f58e2b8}{{2.15}{8}{Public Member Functions}{section*.17}{}}
\newlabel{classQuaternion_a37579fd45df2dcb8c0e17afaf59332a5}{{2.15}{8}{Public Member Functions}{section*.17}{}}
\newlabel{classQuaternion_a380b5c78c9041e7581e0826946daaa87}{{2.15}{8}{Public Member Functions}{section*.17}{}}
\newlabel{classQuaternion_acef8f4049162cf8b56283e31b2b8ade1}{{2.15}{8}{Public Member Functions}{section*.17}{}}
\newlabel{classQuaternion_abca05ed3bb919a15a58eeb73f17a1968}{{2.15}{8}{Public Member Functions}{section*.17}{}}
\newlabel{classQuaternion_a57b9a639a0335a1282c65c70896ef94a}{{2.15}{8}{Public Member Functions}{section*.17}{}}
\newlabel{classQuaternion_a287bf7d3c17472ec50cd424896264de6}{{2.15}{8}{Public Member Functions}{section*.17}{}}
\newlabel{classQuaternion_a0dd88e07ada967f4d0b24950ecd2f60f}{{2.15}{8}{Public Member Functions}{section*.17}{}}
\newlabel{classQuaternion_a04ae17f95aaffafe57c06c788eaeac47}{{2.15}{8}{Public Member Functions}{section*.17}{}}
\newlabel{classQuaternion_a6bbadd6b2b537085c5eb042b02089f6b}{{2.15}{8}{Public Member Functions}{section*.17}{}}
\newlabel{classQuaternion_ae79e69a6e51e8b22887f13ed15abeef7}{{2.15}{8}{Public Member Functions}{section*.17}{}}
\newlabel{classQuaternion_a4d8af82a3ef387902db47d295e69c81d}{{2.15}{8}{Public Member Functions}{section*.17}{}}
\newlabel{classQuaternion_a503d921861bc12d00044d972d2467b1d}{{2.15}{8}{Public Member Functions}{section*.17}{}}
\newlabel{classQuaternion_ace225109c08b93233abf63a8f596c0ec}{{2.15}{8}{Public Member Functions}{section*.17}{}}
\newlabel{classQuaternion_a31802e1d429c631479b5d522503ef23b}{{2.15}{8}{Public Member Functions}{section*.17}{}}
\newlabel{classQuaternion_a111b621474e532d8fa47f3e32550fa10}{{2.15}{8}{Public Member Functions}{section*.17}{}}
\newlabel{classQuaternion_ae4ba37797d15d59c960fc3583498da67}{{2.15}{8}{Public Member Functions}{section*.17}{}}
\newlabel{classQuaternion_a8420dd72918cfc0de0b781880694159a}{{2.15}{8}{Public Member Functions}{section*.17}{}}
\newlabel{classQuaternion_a7cf6dd2f04ee042cc2c1200c580ea078}{{2.15}{8}{Public Member Functions}{section*.17}{}}
\newlabel{classQuaternion_a4b0999dff164cf565c0f4a794ce259c2}{{2.15}{8}{Public Member Functions}{section*.17}{}}
\newlabel{classQuaternion_a1947af77017148589a564fe7b75ccf08}{{2.15}{8}{Public Member Functions}{section*.17}{}}
\newlabel{classQuaternion_a1c0b69729ea50d14531a60079ce5296a}{{2.15}{8}{Public Member Functions}{section*.17}{}}
\newlabel{classQuaternion_a1355d2fd42d5bc035037014638762b7e}{{2.15}{9}{Public Member Functions}{section*.17}{}}
\newlabel{classQuaternion_a254aca65fd63110bc5a3fca7e78ce265}{{2.15}{9}{Public Member Functions}{section*.17}{}}
\newlabel{classQuaternion_a978b127de3cf714944323552d011a7c3}{{2.15}{9}{Public Member Functions}{section*.17}{}}
\newlabel{classQuaternion_a8b2d6021c825b068e5fa862ef2606f9a}{{2.15}{9}{Public Member Functions}{section*.17}{}}
\@writefile{toc}{\contentsline {section}{\numberline {2.16}Screen Struct Reference}{9}{section.2.16}}
\newlabel{structScreen}{{2.16}{9}{Screen Struct Reference}{section.2.16}{}}
\newlabel{structScreen_ae0f2bd734e71f32f0fc6bfedf62f41a9}{{2.16}{9}{Public Attributes}{section*.18}{}}
\newlabel{structScreen_adc8ab95cc13129afb092a7bb45dd989d}{{2.16}{9}{Public Attributes}{section*.18}{}}
\newlabel{structScreen_a7a00775a8daa1555c9e7c33231fb337d}{{2.16}{9}{Public Attributes}{section*.18}{}}
\newlabel{structScreen_a150055762d82b067ee1a88641cd2b9b0}{{2.16}{9}{Public Attributes}{section*.18}{}}
\newlabel{structScreen_ac293dd55f9403dc3e8dc6af4434c8070}{{2.16}{9}{Public Attributes}{section*.18}{}}
\@writefile{toc}{\contentsline {section}{\numberline {2.17}Shader\discretionary {-}{}{}Info Struct Reference}{9}{section.2.17}}
\newlabel{structShaderInfo}{{2.17}{9}{Shader\-Info Struct Reference}{section.2.17}{}}
\newlabel{structShaderInfo_a5ba5c863d25e0c1023cc203db1d942dd}{{2.17}{9}{Public Attributes}{section*.19}{}}
\newlabel{structShaderInfo_aff2138c39f23edbcbf55367f6ad9e23e}{{2.17}{9}{Public Attributes}{section*.19}{}}
\newlabel{structShaderInfo_a49926da7c1829d0776c635dbe924c963}{{2.17}{9}{Public Attributes}{section*.19}{}}
\newlabel{structShaderInfo_a814eb374bcfc72dfca5802e42f2c14bf}{{2.17}{9}{Public Attributes}{section*.19}{}}
\newlabel{structShaderInfo_ad020528b76572a27e6d8a3c94eb65be1}{{2.17}{9}{Public Attributes}{section*.19}{}}
\newlabel{structShaderInfo_a97ec2e19f93e6a4bbdf8beb1af6ac766}{{2.17}{9}{Public Attributes}{section*.19}{}}
\newlabel{structShaderInfo_aa5511a5f55f7854f353df423f59d188a}{{2.17}{9}{Public Attributes}{section*.19}{}}
\newlabel{structShaderInfo_af7b991ee18d2005647762d7d988f06b8}{{2.17}{9}{Public Attributes}{section*.19}{}}
\@writefile{toc}{\contentsline {section}{\numberline {2.18}Texture2\discretionary {-}{}{}D Class Reference}{9}{section.2.18}}
\newlabel{classTexture2D}{{2.18}{9}{Texture2\-D Class Reference}{section.2.18}{}}
\newlabel{classTexture2D_a9cffb410411ea9cff7329bf14dd729d7}{{2.18}{9}{Public Member Functions}{section*.20}{}}
\newlabel{classTexture2D_a661ef3c0c2e0ced154e0a512315a8b77}{{2.18}{9}{Public Member Functions}{section*.20}{}}
\newlabel{classTexture2D_a91bccde122da02002c5518480474c177}{{2.18}{9}{Public Member Functions}{section*.20}{}}
\newlabel{classTexture2D_a6241e7ee5ada60065b0976c1e8e7aea8}{{2.18}{9}{Public Member Functions}{section*.20}{}}
\@writefile{toc}{\contentsline {section}{\numberline {2.19}Vector3$<$ T $>$ Class Template Reference}{10}{section.2.19}}
\newlabel{classVector3}{{2.19}{10}{Vector3$<$ T $>$ Class Template Reference}{section.2.19}{}}
\newlabel{classVector3_a6797fe2b04a56b6b2ee517f23876ebab}{{2.19}{10}{Public Member Functions}{section*.21}{}}
\newlabel{classVector3_aefb84a52deb02e3a1492e8fb81594f7c}{{2.19}{10}{Public Member Functions}{section*.21}{}}
\newlabel{classVector3_ae67cf1b65ec6daee42f7249486f8c25e}{{2.19}{10}{Public Member Functions}{section*.21}{}}
\newlabel{classVector3_a2222f1dfe3c1823f66598aeddde4b245}{{2.19}{10}{Public Member Functions}{section*.21}{}}
\newlabel{classVector3_a3dd45e629d60bb96ceedb37b8ea0c0a3}{{2.19}{10}{Public Member Functions}{section*.21}{}}
\newlabel{classVector3_a847f51ec8dc1a252b638e1417f19fcf3}{{2.19}{10}{Public Member Functions}{section*.21}{}}
\newlabel{classVector3_a975fbfc2a515a97466be54e739ebb9dc}{{2.19}{10}{Public Member Functions}{section*.21}{}}
\newlabel{classVector3_a309786f6de32904bd52b6d511b3c0a4b}{{2.19}{10}{Public Member Functions}{section*.21}{}}
\newlabel{classVector3_aa6b06cd0bbf04c60f49f36aeaad02548}{{2.19}{10}{Public Member Functions}{section*.21}{}}
\newlabel{classVector3_a520b1f9141acc723225ee5cf9a0314e9}{{2.19}{10}{Public Member Functions}{section*.21}{}}
\newlabel{classVector3_a44ec749d5cf63c294459bccc38c7d511}{{2.19}{10}{Public Member Functions}{section*.21}{}}
\newlabel{classVector3_a4cf5b1b23a0b203d0d475421b36f571a}{{2.19}{10}{Public Member Functions}{section*.21}{}}
\newlabel{classVector3_a3f76e664460d9dc0d77cd1234241d91a}{{2.19}{10}{Public Member Functions}{section*.21}{}}
\newlabel{classVector3_ad88b7c23cd457b3d1f8455139ea1deea}{{2.19}{10}{Public Member Functions}{section*.21}{}}
\newlabel{classVector3_a32c084a8bcadb70954796f158e0335df}{{2.19}{10}{Public Member Functions}{section*.21}{}}
\newlabel{classVector3_af73ab8f0fd322e12897fb5352af28415}{{2.19}{10}{Public Member Functions}{section*.21}{}}
\newlabel{classVector3_af9fca14d4b54f886b161bf4c1cc0c420}{{2.19}{10}{Public Member Functions}{section*.21}{}}
\newlabel{classVector3_afd704621d2200ee254b40d911044259e}{{2.19}{10}{Public Member Functions}{section*.21}{}}
\newlabel{classVector3_af0f2e0456c684c6a49f0d860bfdbb64b}{{2.19}{10}{Public Member Functions}{section*.21}{}}
\@writefile{toc}{\contentsline {section}{\numberline {2.20}Vertex Struct Reference}{10}{section.2.20}}
\newlabel{structVertex}{{2.20}{10}{Vertex Struct Reference}{section.2.20}{}}
\newlabel{structVertex_ae4e242ee2001d5c392d1a54145b8aae3}{{2.20}{10}{Public Attributes}{section*.22}{}}
\newlabel{structVertex_aee487a9e1bb4ab5947ab81348374e189}{{2.20}{10}{Public Attributes}{section*.22}{}}
\@writefile{toc}{\contentsline {part}{Index}{10}{section*.22}}
